#
# There is insufficient memory for the Java Runtime Environment to continue.
# Native memory allocation (malloc) failed to allocate 1053056 bytes for Chunk::new
# Possible reasons:
#   The system is out of physical RAM or swap space
#   In 32 bit mode, the process size limit was hit
# Possible solutions:
#   Reduce memory load on the system
#   Increase physical memory or swap space
#   Check if swap backing store is full
#   Use 64 bit Java on a 64 bit OS
#   Decrease Java heap size (-Xmx/-Xms)
#   Decrease number of Java threads
#   Decrease Java thread stack sizes (-Xss)
#   Set larger code cache with -XX:ReservedCodeCacheSize=
# This output file may be truncated or incomplete.
#
#  Out of Memory Error (allocation.cpp:390), pid=5008, tid=0x0000000000000178
#
# JRE version: OpenJDK Runtime Environment (8.0_152-b02) (build 1.8.0_152-release-1024-b02)
# Java VM: OpenJDK 64-Bit Server VM (25.152-b02 mixed mode windows-amd64 compressed oops)
# Failed to write core dump. Minidumps are not enabled by default on client versions of Windows
#

---------------  T H R E A D  ---------------

Current thread (0x0000000017f9b000):  JavaThread "C2 CompilerThread0" daemon [_thread_in_native, id=376, stack(0x00000000195f0000,0x00000000196f0000)]

Stack: [0x00000000195f0000,0x00000000196f0000]
[error occurred during error reporting (printing stack bounds), id 0xc0000005]

Native frames: (J=compiled Java code, j=interpreted, Vv=VM code, C=native code)


Current CompileTask:
C2:1735844 16100       4       com.android.tools.r8.graph.DexMethod::collectIndexedItems (38 bytes)


---------------  P R O C E S S  ---------------

Java Threads: ( => current thread )
  0x000000001eae8800 JavaThread "ForkJoinPool.commonPool-worker-7" daemon [_thread_in_Java, id=8920, stack(0x0000000031f20000,0x0000000032020000)]
  0x000000001eaea800 JavaThread "ForkJoinPool.commonPool-worker-4" daemon [_thread_blocked, id=2540, stack(0x0000000031e20000,0x0000000031f20000)]
  0x0000000020999800 JavaThread "ForkJoinPool.commonPool-worker-3" daemon [_thread_blocked, id=10840, stack(0x0000000031c20000,0x0000000031d20000)]
  0x00000000209a0800 JavaThread "ForkJoinPool.commonPool-worker-2" daemon [_thread_blocked, id=11668, stack(0x0000000031b20000,0x0000000031c20000)]
  0x000000001e070800 JavaThread "ForkJoinPool.commonPool-worker-1" daemon [_thread_in_Java, id=9388, stack(0x0000000031a20000,0x0000000031b20000)]
  0x000000001e06f000 JavaThread "Cache worker for Java compile cache (D:\Programs\AS_workspace\messengerproject\.gradle\4.4\javaCompile)" [_thread_blocked, id=10532, stack(0x0000000031620000,0x0000000031720000)]
  0x000000001e06c000 JavaThread "Task worker for ':' Thread 3" [_thread_blocked, id=9368, stack(0x0000000030820000,0x0000000030920000)]
  0x000000001e072000 JavaThread "Task worker for ':' Thread 2" [_thread_blocked, id=11752, stack(0x0000000030720000,0x0000000030820000)]
  0x000000001e071000 JavaThread "Task worker for ':'" [_thread_blocked, id=11456, stack(0x0000000030620000,0x0000000030720000)]
  0x00000000209a8000 JavaThread "Cache worker for Build Output Cleanup Cache (D:\Programs\AS_workspace\messengerproject\.gradle\buildOutputCleanup)" [_thread_blocked, id=4788, stack(0x0000000030520000,0x0000000030620000)]
  0x00000000209a7000 JavaThread "Cache worker for task history cache (D:\Programs\AS_workspace\messengerproject\.gradle\4.4\taskHistory)" [_thread_blocked, id=2140, stack(0x0000000030420000,0x0000000030520000)]
  0x00000000209a6800 JavaThread "Cache worker for file content cache (D:\Programs\AS_workspace\messengerproject\.gradle\4.4\fileContent)" [_thread_blocked, id=11492, stack(0x0000000030320000,0x0000000030420000)]
  0x00000000209a5000 JavaThread "build operations Thread 4" [_thread_blocked, id=1008, stack(0x0000000030220000,0x0000000030320000)]
  0x00000000209a4000 JavaThread "build operations Thread 3" [_thread_blocked, id=8092, stack(0x0000000030120000,0x0000000030220000)]
  0x000000002099c800 JavaThread "build operations Thread 2" [_thread_blocked, id=9804, stack(0x0000000030020000,0x0000000030120000)]
  0x00000000209a3800 JavaThread "build operations" [_thread_blocked, id=1328, stack(0x000000002ff20000,0x0000000030020000)]
  0x00000000209a2800 JavaThread "Cache worker for Artifact transforms cache (C:\Users\Bekn\.gradle\caches\transforms-1)" [_thread_blocked, id=12124, stack(0x000000002fe20000,0x000000002ff20000)]
  0x00000000209a2000 JavaThread "Cache worker for file hash cache (D:\Programs\AS_workspace\messengerproject\.gradle\4.4\fileHashes)" [_thread_blocked, id=1956, stack(0x000000002fd20000,0x000000002fe20000)]
  0x000000002099f000 JavaThread "Asynchronous log dispatcher for DefaultDaemonConnection: socket connection from /127.0.0.1:56141 to /127.0.0.1:57878" [_thread_blocked, id=6340, stack(0x000000002fb20000,0x000000002fc20000)]
  0x000000002099e000 JavaThread "Daemon worker Thread 2" [_thread_blocked, id=2504, stack(0x000000002fa20000,0x000000002fb20000)]
  0x000000002099d800 JavaThread "Cancel handler" [_thread_blocked, id=7100, stack(0x000000002f920000,0x000000002fa20000)]
  0x000000002099b000 JavaThread "Handler for socket connection from /127.0.0.1:56141 to /127.0.0.1:57878" [_thread_in_native, id=7604, stack(0x000000002f820000,0x000000002f920000)]
  0x0000000020999000 JavaThread "Daemon Thread 2" [_thread_blocked, id=4836, stack(0x000000002f720000,0x000000002f820000)]
  0x000000001e06c800 JavaThread "Memory manager" [_thread_blocked, id=9892, stack(0x0000000023a50000,0x0000000023b50000)]
  0x000000001b3ac800 JavaThread "File lock request listener" [_thread_in_native, id=9764, stack(0x000000001cce0000,0x000000001cde0000)]
  0x000000001b12d800 JavaThread "Cache worker for file hash cache (C:\Users\Bekn\.gradle\caches\4.4\fileHashes)" [_thread_blocked, id=9716, stack(0x000000001cbe0000,0x000000001cce0000)]
  0x000000001af34800 JavaThread "Daemon periodic checks" [_thread_blocked, id=7544, stack(0x000000001c0e0000,0x000000001c1e0000)]
  0x000000001af3e800 JavaThread "Incoming local TCP Connector on port 56141" [_thread_in_native, id=11500, stack(0x000000001bc00000,0x000000001bd00000)]
  0x0000000017ffe800 JavaThread "Service Thread" daemon [_thread_blocked, id=2436, stack(0x0000000019cf0000,0x0000000019df0000)]
  0x0000000017fa4800 JavaThread "C1 CompilerThread2" daemon [_thread_in_native, id=2736, stack(0x00000000197f0000,0x00000000198f0000)]
  0x0000000017fa0800 JavaThread "C2 CompilerThread1" daemon [_thread_in_native, id=7956, stack(0x00000000196f0000,0x00000000197f0000)]
=>0x0000000017f9b000 JavaThread "C2 CompilerThread0" daemon [_thread_in_native, id=376, stack(0x00000000195f0000,0x00000000196f0000)]
  0x0000000017f99800 JavaThread "Attach Listener" daemon [_thread_blocked, id=4672, stack(0x00000000194f0000,0x00000000195f0000)]
  0x0000000017f98000 JavaThread "Signal Dispatcher" daemon [_thread_blocked, id=6312, stack(0x00000000193f0000,0x00000000194f0000)]
  0x0000000017f87000 JavaThread "Finalizer" daemon [_thread_blocked, id=8076, stack(0x0000000019200000,0x0000000019300000)]
  0x00000000045e1000 JavaThread "Reference Handler" daemon [_thread_blocked, id=9144, stack(0x0000000019100000,0x0000000019200000)]
  0x000000000462d800 JavaThread "main" [_thread_blocked, id=5964, stack(0x00000000043e0000,0x00000000044e0000)]

Other Threads:
  0x0000000017f65800 VMThread [stack: 0x0000000019000000,0x0000000019100000] [id=7812]
  0x000000001992c800 WatcherThread [stack: 0x0000000019df0000,0x0000000019ef0000] [id=2616]

VM state:not at safepoint (normal execution)

VM Mutex/Monitor currently owned by a thread: None

Heap:
 PSYoungGen      total 323072K, used 258899K [0x00000000e0000000, 0x00000000f9e80000, 0x0000000100000000)
  eden space 302592K, 85% used [0x00000000e0000000,0x00000000efb3f6c0,0x00000000f2780000)
  from space 20480K, 7% used [0x00000000f2780000,0x00000000f2915568,0x00000000f3b80000)
  to   space 20480K, 0% used [0x00000000f8a80000,0x00000000f8a80000,0x00000000f9e80000)
 ParOldGen       total 100352K, used 63262K [0x00000000a0000000, 0x00000000a6200000, 0x00000000e0000000)
  object space 100352K, 63% used [0x00000000a0000000,0x00000000a3dc7b38,0x00000000a6200000)
 Metaspace       used 79714K, capacity 83038K, committed 83160K, reserved 1122304K
  class space    used 10274K, capacity 10977K, committed 11008K, reserved 1048576K

Card table byte_map: [0x00000000139f0000,0x0000000013d00000] byte_map_base: 0x00000000134f0000

Marking Bits: (ParMarkBitMap*) 0x0000000052394970
 Begin Bits: [0x0000000014300000, 0x0000000015b00000)
 End Bits:   [0x0000000015b00000, 0x0000000017300000)

Polling page: 0x0000000002bb0000

CodeCache: size=245760Kb used=44292Kb max_used=44414Kb free=201467Kb
 bounds [0x0000000004630000, 0x00000000071d0000, 0x0000000013630000]
 total_blobs=14251 nmethods=13407 adapters=754
 compilation: enabled

Compilation events (10 events):
Event: 1735.436 Thread 0x0000000017fa4800 16164       3       com.android.tools.r8.graph.DexValue$SimpleDexValue::writeIntegerTo (42 bytes)
Event: 1735.438 Thread 0x0000000017fa4800 nmethod 16164 0x00000000068b8b50 code [0x00000000068b8d80, 0x00000000068b9888]
Event: 1735.438 Thread 0x0000000017fa4800 16165       3       com.android.tools.r8.dex.DexOutputBuffer::putSignedEncodedValue (7 bytes)
Event: 1735.439 Thread 0x0000000017fa4800 nmethod 16165 0x00000000068b8790 code [0x00000000068b8900, 0x00000000068b8a88]
Event: 1735.439 Thread 0x0000000017fa4800 16168       2       com.android.tools.r8.graph.DexValue$DexValueInt::writeTo (12 bytes)
Event: 1735.439 Thread 0x0000000017fa4800 nmethod 16168 0x00000000068b8410 code [0x00000000068b8580, 0x00000000068b8708]
Event: 1735.443 Thread 0x0000000017fa4800 16169       2       com.android.tools.r8.graph.DexEncodedField::getKey (5 bytes)
Event: 1735.443 Thread 0x0000000017fa4800 nmethod 16169 0x00000000068b80d0 code [0x00000000068b8220, 0x00000000068b8370]
Event: 1735.453 Thread 0x0000000017fa4800 16171       1       com.android.tools.r8.graph.ObjectToOffsetMapping::getClasses (5 bytes)
Event: 1735.453 Thread 0x0000000017fa4800 nmethod 16171 0x00000000068b7e10 code [0x00000000068b7f60, 0x00000000068b8070]

GC Heap History (10 events):
Event: 66.164 GC heap before
{Heap before GC invocations=22 (full 3):
 PSYoungGen      total 199168K, used 190874K [0x00000000e0000000, 0x00000000ed800000, 0x0000000100000000)
  eden space 183296K, 99% used [0x00000000e0000000,0x00000000eb21c320,0x00000000eb300000)
  from space 15872K, 53% used [0x00000000ec880000,0x00000000ed0ca5a0,0x00000000ed800000)
  to   space 18944K, 0% used [0x00000000eb300000,0x00000000eb300000,0x00000000ec580000)
 ParOldGen       total 100352K, used 41655K [0x00000000a0000000, 0x00000000a6200000, 0x00000000e0000000)
  object space 100352K, 41% used [0x00000000a0000000,0x00000000a28adef8,0x00000000a6200000)
 Metaspace       used 59963K, capacity 62124K, committed 62424K, reserved 1103872K
  class space    used 8077K, capacity 8589K, committed 8704K, reserved 1048576K
Event: 66.178 GC heap after
Heap after GC invocations=22 (full 3):
 PSYoungGen      total 202240K, used 7111K [0x00000000e0000000, 0x00000000f0a80000, 0x0000000100000000)
  eden space 183296K, 0% used [0x00000000e0000000,0x00000000e0000000,0x00000000eb300000)
  from space 18944K, 37% used [0x00000000eb300000,0x00000000eb9f1fd8,0x00000000ec580000)
  to   space 17920K, 0% used [0x00000000ef900000,0x00000000ef900000,0x00000000f0a80000)
 ParOldGen       total 100352K, used 41663K [0x00000000a0000000, 0x00000000a6200000, 0x00000000e0000000)
  object space 100352K, 41% used [0x00000000a0000000,0x00000000a28afef8,0x00000000a6200000)
 Metaspace       used 59963K, capacity 62124K, committed 62424K, reserved 1103872K
  class space    used 8077K, capacity 8589K, committed 8704K, reserved 1048576K
}
Event: 66.285 GC heap before
{Heap before GC invocations=23 (full 3):
 PSYoungGen      total 202240K, used 190264K [0x00000000e0000000, 0x00000000f0a80000, 0x0000000100000000)
  eden space 183296K, 99% used [0x00000000e0000000,0x00000000eb2dc190,0x00000000eb300000)
  from space 18944K, 37% used [0x00000000eb300000,0x00000000eb9f1fd8,0x00000000ec580000)
  to   space 17920K, 0% used [0x00000000ef900000,0x00000000ef900000,0x00000000f0a80000)
 ParOldGen       total 100352K, used 41663K [0x00000000a0000000, 0x00000000a6200000, 0x00000000e0000000)
  object space 100352K, 41% used [0x00000000a0000000,0x00000000a28afef8,0x00000000a6200000)
 Metaspace       used 59964K, capacity 62124K, committed 62424K, reserved 1103872K
  class space    used 8077K, capacity 8589K, committed 8704K, reserved 1048576K
Event: 66.299 GC heap after
Heap after GC invocations=23 (full 3):
 PSYoungGen      total 255488K, used 6474K [0x00000000e0000000, 0x00000000f0e00000, 0x0000000100000000)
  eden space 237568K, 0% used [0x00000000e0000000,0x00000000e0000000,0x00000000ee800000)
  from space 17920K, 36% used [0x00000000ef900000,0x00000000eff52b60,0x00000000f0a80000)
  to   space 17408K, 0% used [0x00000000ee800000,0x00000000ee800000,0x00000000ef900000)
 ParOldGen       total 100352K, used 41663K [0x00000000a0000000, 0x00000000a6200000, 0x00000000e0000000)
  object space 100352K, 41% used [0x00000000a0000000,0x00000000a28afef8,0x00000000a6200000)
 Metaspace       used 59964K, capacity 62124K, committed 62424K, reserved 1103872K
  class space    used 8077K, capacity 8589K, committed 8704K, reserved 1048576K
}
Event: 1628.903 GC heap before
{Heap before GC invocations=24 (full 3):
 PSYoungGen      total 255488K, used 244042K [0x00000000e0000000, 0x00000000f0e00000, 0x0000000100000000)
  eden space 237568K, 100% used [0x00000000e0000000,0x00000000ee800000,0x00000000ee800000)
  from space 17920K, 36% used [0x00000000ef900000,0x00000000eff52b60,0x00000000f0a80000)
  to   space 17408K, 0% used [0x00000000ee800000,0x00000000ee800000,0x00000000ef900000)
 ParOldGen       total 100352K, used 41663K [0x00000000a0000000, 0x00000000a6200000, 0x00000000e0000000)
  object space 100352K, 41% used [0x00000000a0000000,0x00000000a28afef8,0x00000000a6200000)
 Metaspace       used 63520K, capacity 65874K, committed 66136K, reserved 1105920K
  class space    used 8438K, capacity 8984K, committed 9088K, reserved 1048576K
Event: 1629.095 GC heap after
Heap after GC invocations=24 (full 3):
 PSYoungGen      total 254976K, used 4780K [0x00000000e0000000, 0x00000000f4e80000, 0x0000000100000000)
  eden space 237568K, 0% used [0x00000000e0000000,0x00000000e0000000,0x00000000ee800000)
  from space 17408K, 27% used [0x00000000ee800000,0x00000000eecab0e0,0x00000000ef900000)
  to   space 17408K, 0% used [0x00000000f3d80000,0x00000000f3d80000,0x00000000f4e80000)
 ParOldGen       total 100352K, used 46245K [0x00000000a0000000, 0x00000000a6200000, 0x00000000e0000000)
  object space 100352K, 46% used [0x00000000a0000000,0x00000000a2d29588,0x00000000a6200000)
 Metaspace       used 63520K, capacity 65874K, committed 66136K, reserved 1105920K
  class space    used 8438K, capacity 8984K, committed 9088K, reserved 1048576K
}
Event: 1689.610 GC heap before
{Heap before GC invocations=25 (full 3):
 PSYoungGen      total 254976K, used 242348K [0x00000000e0000000, 0x00000000f4e80000, 0x0000000100000000)
  eden space 237568K, 100% used [0x00000000e0000000,0x00000000ee800000,0x00000000ee800000)
  from space 17408K, 27% used [0x00000000ee800000,0x00000000eecab0e0,0x00000000ef900000)
  to   space 17408K, 0% used [0x00000000f3d80000,0x00000000f3d80000,0x00000000f4e80000)
 ParOldGen       total 100352K, used 46245K [0x00000000a0000000, 0x00000000a6200000, 0x00000000e0000000)
  object space 100352K, 46% used [0x00000000a0000000,0x00000000a2d29588,0x00000000a6200000)
 Metaspace       used 69990K, capacity 72490K, committed 72664K, reserved 1112064K
  class space    used 9133K, capacity 9704K, committed 9728K, reserved 1048576K
Event: 1689.663 GC heap after
Heap after GC invocations=25 (full 3):
 PSYoungGen      total 320000K, used 17406K [0x00000000e0000000, 0x00000000f4f80000, 0x0000000100000000)
  eden space 302592K, 0% used [0x00000000e0000000,0x00000000e0000000,0x00000000f2780000)
  from space 17408K, 99% used [0x00000000f3d80000,0x00000000f4e7fad0,0x00000000f4e80000)
  to   space 20480K, 0% used [0x00000000f2780000,0x00000000f2780000,0x00000000f3b80000)
 ParOldGen       total 100352K, used 47403K [0x00000000a0000000, 0x00000000a6200000, 0x00000000e0000000)
  object space 100352K, 47% used [0x00000000a0000000,0x00000000a2e4aca0,0x00000000a6200000)
 Metaspace       used 69990K, capacity 72490K, committed 72664K, reserved 1112064K
  class space    used 9133K, capacity 9704K, committed 9728K, reserved 1048576K
}
Event: 1694.404 GC heap before
{Heap before GC invocations=26 (full 3):
 PSYoungGen      total 320000K, used 319998K [0x00000000e0000000, 0x00000000f4f80000, 0x0000000100000000)
  eden space 302592K, 100% used [0x00000000e0000000,0x00000000f2780000,0x00000000f2780000)
  from space 17408K, 99% used [0x00000000f3d80000,0x00000000f4e7fad0,0x00000000f4e80000)
  to   space 20480K, 0% used [0x00000000f2780000,0x00000000f2780000,0x00000000f3b80000)
 ParOldGen       total 100352K, used 47403K [0x00000000a0000000, 0x00000000a6200000, 0x00000000e0000000)
  object space 100352K, 47% used [0x00000000a0000000,0x00000000a2e4aca0,0x00000000a6200000)
 Metaspace       used 70607K, capacity 73246K, committed 73560K, reserved 1114112K
  class space    used 9202K, capacity 9792K, committed 9856K, reserved 1048576K
Event: 1694.529 GC heap after
Heap after GC invocations=26 (full 3):
 PSYoungGen      total 323072K, used 1621K [0x00000000e0000000, 0x00000000f9e80000, 0x0000000100000000)
  eden space 302592K, 0% used [0x00000000e0000000,0x00000000e0000000,0x00000000f2780000)
  from space 20480K, 7% used [0x00000000f2780000,0x00000000f2915568,0x00000000f3b80000)
  to   space 20480K, 0% used [0x00000000f8a80000,0x00000000f8a80000,0x00000000f9e80000)
 ParOldGen       total 100352K, used 63262K [0x00000000a0000000, 0x00000000a6200000, 0x00000000e0000000)
  object space 100352K, 63% used [0x00000000a0000000,0x00000000a3dc7b38,0x00000000a6200000)
 Metaspace       used 70607K, capacity 73246K, committed 73560K, reserved 1114112K
  class space    used 9202K, capacity 9792K, committed 9856K, reserved 1048576K
}

Deoptimization events (10 events):
Event: 1734.812 Thread 0x000000001eae8800 Uncommon trap: reason=bimorphic action=maybe_recompile pc=0x0000000007150440 method=java.util.Map.computeIfAbsent(Ljava/lang/Object;Ljava/util/function/Function;)Ljava/lang/Object; @ 7
Event: 1734.812 Thread 0x000000001eae8800 Uncommon trap: reason=bimorphic action=maybe_recompile pc=0x0000000007150440 method=java.util.Map.computeIfAbsent(Ljava/lang/Object;Ljava/util/function/Function;)Ljava/lang/Object; @ 7
Event: 1734.998 Thread 0x0000000020999800 Uncommon trap: reason=array_check action=maybe_recompile pc=0x000000000716c5d8 method=java.util.TimSort.mergeHi(IIII)V @ 101
Event: 1734.998 Thread 0x0000000020999800 Uncommon trap: reason=array_check action=maybe_recompile pc=0x000000000716c5d8 method=java.util.TimSort.mergeHi(IIII)V @ 101
Event: 1735.078 Thread 0x000000001eaea800 Uncommon trap: reason=unstable_if action=reinterpret pc=0x000000000716c6f4 method=java.util.TimSort.mergeHi(IIII)V @ 131
Event: 1735.150 Thread 0x000000001eae8800 Uncommon trap: reason=class_check action=maybe_recompile pc=0x00000000049b1aec method=java.util.Comparators$NaturalOrderComparator.compare(Ljava/lang/Object;Ljava/lang/Object;)I @ 2
Event: 1735.150 Thread 0x000000001eae8800 Uncommon trap: reason=class_check action=maybe_recompile pc=0x00000000049b1aec method=java.util.Comparators$NaturalOrderComparator.compare(Ljava/lang/Object;Ljava/lang/Object;)I @ 2
Event: 1735.150 Thread 0x000000001eae8800 Uncommon trap: reason=class_check action=maybe_recompile pc=0x00000000049b1aec method=java.util.Comparators$NaturalOrderComparator.compare(Ljava/lang/Object;Ljava/lang/Object;)I @ 2
Event: 1735.150 Thread 0x000000001eae8800 Uncommon trap: reason=class_check action=maybe_recompile pc=0x00000000049b1aec method=java.util.Comparators$NaturalOrderComparator.compare(Ljava/lang/Object;Ljava/lang/Object;)I @ 2
Event: 1735.390 Thread 0x000000001e070800 Uncommon trap: reason=array_check action=maybe_recompile pc=0x0000000006b3a858 method=java.util.TimSort.mergeLo(IIII)V @ 81

Classes redefined (0 events):
No events

Internal exceptions (10 events):
Event: 1728.486 Thread 0x000000001eaea800 Exception <a 'sun/nio/fs/WindowsException'> (0x00000000eda693e0) thrown at [D:\src\AOSP-openjdk-cygwin\jdk8u\hotspot\src\share\vm\prims\jni.cpp, line 709]
Event: 1728.510 Thread 0x00000000209a0800 Exception <a 'sun/nio/fs/WindowsException'> (0x00000000ecdcb698) thrown at [D:\src\AOSP-openjdk-cygwin\jdk8u\hotspot\src\share\vm\prims\jni.cpp, line 709]
Event: 1728.525 Thread 0x0000000020999800 Exception <a 'sun/nio/fs/WindowsException'> (0x00000000edb4c130) thrown at [D:\src\AOSP-openjdk-cygwin\jdk8u\hotspot\src\share\vm\prims\jni.cpp, line 709]
Event: 1731.744 Thread 0x0000000020999800 Exception <a 'sun/nio/fs/WindowsException'> (0x00000000edb94090) thrown at [D:\src\AOSP-openjdk-cygwin\jdk8u\hotspot\src\share\vm\prims\jni.cpp, line 709]
Event: 1733.293 Thread 0x00000000209a0800 Exception <a 'sun/nio/fs/WindowsException'> (0x00000000ee50a3b0) thrown at [D:\src\AOSP-openjdk-cygwin\jdk8u\hotspot\src\share\vm\prims\jni.cpp, line 709]
Event: 1733.396 Thread 0x000000001e070800 Implicit null exception at 0x000000000531ec2f to 0x000000000531ed1d
Event: 1734.147 Thread 0x000000001e070800 Exception <a 'sun/nio/fs/WindowsException'> (0x00000000eea8ca40) thrown at [D:\src\AOSP-openjdk-cygwin\jdk8u\hotspot\src\share\vm\prims\jni.cpp, line 709]
Event: 1734.373 Thread 0x000000001eaea800 Exception <a 'sun/nio/fs/WindowsException'> (0x00000000eec62dd0) thrown at [D:\src\AOSP-openjdk-cygwin\jdk8u\hotspot\src\share\vm\prims\jni.cpp, line 709]
Event: 1734.898 Thread 0x000000001eae8800 Exception <a 'sun/nio/fs/WindowsException'> (0x00000000ef42cb68) thrown at [D:\src\AOSP-openjdk-cygwin\jdk8u\hotspot\src\share\vm\prims\jni.cpp, line 709]
Event: 1735.204 Thread 0x0000000020999800 Exception <a 'sun/nio/fs/WindowsException'> (0x00000000ef620fe0) thrown at [D:\src\AOSP-openjdk-cygwin\jdk8u\hotspot\src\share\vm\prims\jni.cpp, line 709]

Events (10 events):
Event: 1735.269 Thread 0x000000001e070800 DEOPT UNPACKING pc=0x00000000046771d0 sp=0x0000000031b1e508 mode 0
Event: 1735.273 Thread 0x000000001e070800 DEOPT PACKING pc=0x00000000071baec6 sp=0x0000000031b1e760
Event: 1735.273 Thread 0x000000001e070800 DEOPT UNPACKING pc=0x00000000046771d0 sp=0x0000000031b1e4d8 mode 0
Event: 1735.280 Thread 0x000000001e070800 DEOPT PACKING pc=0x00000000071baec6 sp=0x0000000031b1e760
Event: 1735.280 Thread 0x000000001e070800 DEOPT UNPACKING pc=0x00000000046771d0 sp=0x0000000031b1e4d8 mode 0
Event: 1735.390 Thread 0x000000001e070800 Uncommon trap: trap_request=0xffffffd6 fr.pc=0x0000000006b3a858
Event: 1735.390 Thread 0x000000001e070800 DEOPT PACKING pc=0x0000000006b3a858 sp=0x0000000031b1eb40
Event: 1735.390 Thread 0x000000001e070800 DEOPT UNPACKING pc=0x000000000467557b sp=0x0000000031b1eb28 mode 2
Event: 1735.398 Thread 0x000000001e070800 DEOPT PACKING pc=0x0000000006b8685a sp=0x0000000031b1ed60
Event: 1735.398 Thread 0x000000001e070800 DEOPT UNPACKING pc=0x00000000046771d0 sp=0x0000000031b1ead8 mode 0


Dynamic libraries:
0x00007ff743eb0000 - 0x00007ff743ee1000 	D:\Programs\Android Studio\jre\bin\java.exe
0x00007ffcaf450000 - 0x00007ffcaf630000 	C:\WINDOWS\SYSTEM32\ntdll.dll
0x00007ffcac920000 - 0x00007ffcac9ce000 	C:\WINDOWS\System32\KERNEL32.DLL
0x00007ffcac020000 - 0x00007ffcac286000 	C:\WINDOWS\System32\KERNELBASE.dll
0x00007ffcaf370000 - 0x00007ffcaf411000 	C:\WINDOWS\System32\ADVAPI32.dll
0x00007ffcac9d0000 - 0x00007ffcaca6d000 	C:\WINDOWS\System32\msvcrt.dll
0x00007ffcaf200000 - 0x00007ffcaf25b000 	C:\WINDOWS\System32\sechost.dll
0x00007ffcaef10000 - 0x00007ffcaf02f000 	C:\WINDOWS\System32\RPCRT4.dll
0x00007ffcad6a0000 - 0x00007ffcad82f000 	C:\WINDOWS\System32\USER32.dll
0x00007ffcac590000 - 0x00007ffcac5b0000 	C:\WINDOWS\System32\win32u.dll
0x00007ffcace60000 - 0x00007ffcace88000 	C:\WINDOWS\System32\GDI32.dll
0x00007ffcac290000 - 0x00007ffcac423000 	C:\WINDOWS\System32\gdi32full.dll
0x00007ffcac880000 - 0x00007ffcac91b000 	C:\WINDOWS\System32\msvcp_win.dll
0x00007ffcac430000 - 0x00007ffcac526000 	C:\WINDOWS\System32\ucrtbase.dll
0x00007ffc9fec0000 - 0x00007ffca0129000 	C:\WINDOWS\WinSxS\amd64_microsoft.windows.common-controls_6595b64144ccf1df_6.0.16299.309_none_15cfd4c4935e6b11\COMCTL32.dll
0x00007ffcacad0000 - 0x00007ffcacdd8000 	C:\WINDOWS\System32\combase.dll
0x00007ffcabfa0000 - 0x00007ffcac012000 	C:\WINDOWS\System32\bcryptPrimitives.dll
0x00007ffcaf030000 - 0x00007ffcaf05d000 	C:\WINDOWS\System32\IMM32.DLL
0x0000000051a10000 - 0x0000000051ae2000 	D:\Programs\Android Studio\jre\jre\bin\msvcr100.dll
0x0000000051bd0000 - 0x000000005240f000 	D:\Programs\Android Studio\jre\jre\bin\server\jvm.dll
0x00007ffcaf260000 - 0x00007ffcaf268000 	C:\WINDOWS\System32\PSAPI.DLL
0x00007ffca9a20000 - 0x00007ffca9a43000 	C:\WINDOWS\SYSTEM32\WINMM.dll
0x00007ffc9d490000 - 0x00007ffc9d499000 	C:\WINDOWS\SYSTEM32\WSOCK32.dll
0x00007ffca5b90000 - 0x00007ffca5b9a000 	C:\WINDOWS\SYSTEM32\VERSION.dll
0x00007ffcace90000 - 0x00007ffcacefc000 	C:\WINDOWS\System32\WS2_32.dll
0x00007ffca9720000 - 0x00007ffca974a000 	C:\WINDOWS\SYSTEM32\WINMMBASE.dll
0x00007ffcac660000 - 0x00007ffcac6aa000 	C:\WINDOWS\System32\cfgmgr32.dll
0x00007ffca7240000 - 0x00007ffca724f000 	D:\Programs\Android Studio\jre\jre\bin\verify.dll
0x00007ffc8eeb0000 - 0x00007ffc8eed9000 	D:\Programs\Android Studio\jre\jre\bin\java.dll
0x00007ffc8ee90000 - 0x00007ffc8eea6000 	D:\Programs\Android Studio\jre\jre\bin\zip.dll
0x00007ffcad940000 - 0x00007ffcaed76000 	C:\WINDOWS\System32\SHELL32.dll
0x00007ffcacf00000 - 0x00007ffcacfa6000 	C:\WINDOWS\System32\shcore.dll
0x00007ffcab850000 - 0x00007ffcabf97000 	C:\WINDOWS\System32\windows.storage.dll
0x00007ffcaf310000 - 0x00007ffcaf361000 	C:\WINDOWS\System32\shlwapi.dll
0x00007ffcab810000 - 0x00007ffcab821000 	C:\WINDOWS\System32\kernel.appcore.dll
0x00007ffcab7a0000 - 0x00007ffcab7ec000 	C:\WINDOWS\System32\powrprof.dll
0x00007ffcab830000 - 0x00007ffcab84b000 	C:\WINDOWS\System32\profapi.dll
0x00007ffc8ee70000 - 0x00007ffc8ee8a000 	D:\Programs\Android Studio\jre\jre\bin\net.dll
0x00007ffcaafd0000 - 0x00007ffcab036000 	C:\WINDOWS\system32\mswsock.dll
0x00007ffc8ee30000 - 0x00007ffc8ee41000 	D:\Programs\Android Studio\jre\jre\bin\nio.dll
0x00007ffca1130000 - 0x00007ffca114e000 	C:\Users\Bekn\.gradle\native\25\windows-amd64\native-platform.dll
0x00007ffca72b0000 - 0x00007ffca72bd000 	D:\Programs\Android Studio\jre\jre\bin\management.dll
0x00007ffcab1f0000 - 0x00007ffcab207000 	C:\WINDOWS\SYSTEM32\CRYPTSP.dll
0x00007ffcaabd0000 - 0x00007ffcaac03000 	C:\WINDOWS\system32\rsaenh.dll
0x00007ffcab300000 - 0x00007ffcab325000 	C:\WINDOWS\SYSTEM32\bcrypt.dll
0x00007ffcab6d0000 - 0x00007ffcab6f9000 	C:\WINDOWS\SYSTEM32\USERENV.dll
0x00007ffcab210000 - 0x00007ffcab21b000 	C:\WINDOWS\SYSTEM32\CRYPTBASE.dll
0x00007ffcaad60000 - 0x00007ffcaad99000 	C:\WINDOWS\SYSTEM32\IPHLPAPI.DLL
0x00007ffcaef00000 - 0x00007ffcaef08000 	C:\WINDOWS\System32\NSI.dll
0x00007ffc9fbe0000 - 0x00007ffc9fbf6000 	C:\WINDOWS\SYSTEM32\dhcpcsvc6.DLL
0x00007ffc9fbc0000 - 0x00007ffc9fbda000 	C:\WINDOWS\SYSTEM32\dhcpcsvc.DLL

VM Arguments:
jvm_args: -Xmx1536m -Dfile.encoding=windows-1252 -Duser.country=US -Duser.language=en -Duser.variant 
java_command: org.gradle.launcher.daemon.bootstrap.GradleDaemon 4.4
java_class_path (initial): C:\Users\Bekn\.gradle\wrapper\dists\gradle-4.4-all\9br9xq1tocpiv8o6njlyu5op1\gradle-4.4\lib\gradle-launcher-4.4.jar
Launcher Type: SUN_STANDARD

Environment Variables:
JAVA_HOME=C:\Program Files\Java\jdk-9.0.4
PATH=C:\Program Files (x86)\Common Files\Intel\Shared Files\cpp\bin\Intel64;C:\ProgramData\Oracle\Java\javapath;C:\WINDOWS\system32;C:\WINDOWS;C:\WINDOWS\System32\Wbem;C:\WINDOWS\System32\WindowsPowerShell\v1.0\;D:\Programs\Qt\5.9.1\msvc2017_64\bin;D:\Programs\Git\cmd;D:\Programs\Composer;D:\Programs\OpenServer\OSPanel\modules\php\PHP-7.1-x64;D:\Programs\Node.js\;C:\Program Files (x86)\GtkSharp\2.12\bin;C:\Program Files\Java\jdk-9.0.4;C:\Users\Bekn\AppData\Local\Microsoft\WindowsApps;D:\Programs\Qt\5.9.1\msvc2017_64\bin;C:\Users\Bekn\AppData\Roaming\Composer\vendor\bin;D:\Programs\OpenServer\OSPanel\modules\php\PHP-7.1-x64;C:\ProgramData\Oracle\Java\javapath;C:\Users\Bekn\AppData\Roaming\npm;C:\Program Files\Java\jdk-9.0.4;
USERNAME=Bekn
OS=Windows_NT
PROCESSOR_IDENTIFIER=Intel64 Family 6 Model 55 Stepping 8, GenuineIntel



---------------  S Y S T E M  ---------------

OS: Windows 10.0 , 64 bit Build 16299 (10.0.16299.15)

CPU:total 4 (initial active 4) (4 cores per cpu, 1 threads per core) family 6 model 55 stepping 8, cmov, cx8, fxsr, mmx, sse, sse2, sse3, ssse3, sse4.1, sse4.2, popcnt, clmul, erms, 3dnowpref, tsc, tscinvbit

Memory: 4k page, physical 4075888k(287800k free), swap 5611876k(604k free)

vm_info: OpenJDK 64-Bit Server VM (25.152-b02) for windows-amd64 JRE (1.8.0_152-release-1024-b02), built by "builder" with MS VC++ 10.0 (VS2010)

time: Fri Apr 13 11:48:16 2018
elapsed time: 1735 seconds (0d 0h 28m 55s)

